<svg id="wp-event-manager-ical" xmlns="http://www.w3.org/2000/svg" width="200" height="200" viewBox="0 0 200 200">
  <g id="_1792086701776" transform="translate(28.155 35.591)">
    <path id="Path_5985" data-name="Path 5985" d="M728.87,732.145h3.945V639.3a4.614,4.614,0,0,1,4.6-4.6h20.24v-7.065a3.885,3.885,0,0,1,3.873-3.873h0a3.885,3.885,0,0,1,3.873,3.873V634.7h49.281v-6.225a4,4,0,0,1,3.994-3.994h0a4,4,0,0,1,3.994,3.994V634.7h20.08a4.614,4.614,0,0,1,4.6,4.6V741.6a4.615,4.615,0,0,1-4.6,4.6H741.032a4.565,4.565,0,0,1-1.874.4H728.87a4.614,4.614,0,0,1-4.6-4.6v-5.255A4.614,4.614,0,0,1,728.87,732.145Z" transform="translate(-707.067 -620.288)" fill="#fff" fill-rule="evenodd"/>
    <path id="Path_5986" data-name="Path 5986" d="M902.63,821.95h21.2V829h8.722V821.95H981.3v6.892h8.877V821.95h23.331v19.272H902.63Z" transform="translate(-874.257 -806.066)" fill="#1f98f9" fill-rule="evenodd"/>
    <path id="Path_5987" data-name="Path 5987" d="M803.3,579.39H791.3v-3.522a7.548,7.548,0,0,0-15.1,0v3.522H733.941v-3.522a7.548,7.548,0,0,0-15.1,0v3.615a2.522,2.522,0,0,0-.671-.093H708.15a12.594,12.594,0,0,0-12.58,12.58v73.208a2.516,2.516,0,0,0,5.031,0V605.3h90.7a2.516,2.516,0,0,0,0-5.033H700.6v-8.3a7.557,7.557,0,0,1,7.548-7.548h10.024a2.494,2.494,0,0,0,.671-.093v3.238a7.548,7.548,0,0,0,15.1,0v-3.145h42.268v3.145a7.548,7.548,0,0,0,15.1,0v-3.145H803.3a7.556,7.556,0,0,1,7.547,7.548v95.606a4.53,4.53,0,0,1-9.06,0v-6.509a2.516,2.516,0,0,0-2.516-2.516H770a2.516,2.516,0,0,0,0,5.032h26.75v3.992a9.5,9.5,0,0,0,1.144,4.53H696.62a4.534,4.534,0,0,1-4.528-4.528v-3.994h56.314a2.516,2.516,0,0,0,0-5.032H689.576a2.516,2.516,0,0,0-2.516,2.516v6.511a9.572,9.572,0,0,0,9.56,9.56h109.7a9.573,9.573,0,0,0,9.562-9.562V591.969a12.6,12.6,0,0,0-12.58-12.58Zm-74.389,8.177a2.516,2.516,0,0,1-5.033,0v-11.7a2.516,2.516,0,1,1,5.031,0Zm57.364,0a2.516,2.516,0,0,1-5.032,0v-11.7a2.516,2.516,0,0,1,5.032,0Z" transform="translate(-672.187 -568.32)" fill-rule="evenodd"/>
    <g id="Group_1937" data-name="Group 1937" transform="translate(128.404 31.952)">
      <g id="Group_1936" data-name="Group 1936" transform="translate(0)">
        <path id="Path_5988" data-name="Path 5988" d="M2504.2,1079.268a2.513,2.513,0,1,0,.738,1.779A2.533,2.533,0,0,0,2504.2,1079.268Z" transform="translate(-2499.91 -1078.53)" fill-rule="evenodd"/>
      </g>
    </g>
    <g id="Group_1939" data-name="Group 1939" transform="translate(85.718 110.232)">
      <g id="Group_1938" data-name="Group 1938">
        <path id="Path_5989" data-name="Path 5989" d="M1822.595,2329.225a2.518,2.518,0,1,0,.737,1.779A2.534,2.534,0,0,0,1822.595,2329.225Z" transform="translate(-1818.3 -2328.49)" fill-rule="evenodd"/>
      </g>
    </g>
    <g id="Group_1941" data-name="Group 1941" transform="translate(62.235 76.485)">
      <g id="Group_1940" data-name="Group 1940">
        <path id="Path_5990" data-name="Path 5990" d="M1452.89,1789.63a9.56,9.56,0,1,0,9.561,9.561A9.572,9.572,0,0,0,1452.89,1789.63Zm0,14.09a4.529,4.529,0,1,1,4.529-4.529A4.534,4.534,0,0,1,1452.89,1803.719Z" transform="translate(-1443.33 -1789.63)" fill-rule="evenodd"/>
      </g>
    </g>
    <g id="Group_1943" data-name="Group 1943" transform="translate(85.718 76.485)">
      <g id="Group_1942" data-name="Group 1942">
        <path id="Path_5991" data-name="Path 5991" d="M1827.86,1789.63a9.56,9.56,0,1,0,9.56,9.561A9.571,9.571,0,0,0,1827.86,1789.63Zm0,14.09a4.529,4.529,0,1,1,4.528-4.529A4.535,4.535,0,0,1,1827.86,1803.719Z" transform="translate(-1818.3 -1789.63)" fill-rule="evenodd"/>
      </g>
    </g>
    <g id="Group_1945" data-name="Group 1945" transform="translate(109.2 76.485)">
      <g id="Group_1944" data-name="Group 1944">
        <path id="Path_5992" data-name="Path 5992" d="M2202.821,1789.63a9.56,9.56,0,1,0,9.561,9.561A9.571,9.571,0,0,0,2202.821,1789.63Zm0,14.09a4.529,4.529,0,1,1,4.529-4.529A4.534,4.534,0,0,1,2202.821,1803.719Z" transform="translate(-2193.26 -1789.63)" fill-rule="evenodd"/>
      </g>
    </g>
    <g id="Group_1947" data-name="Group 1947" transform="translate(85.718 50.319)">
      <g id="Group_1946" data-name="Group 1946">
        <path id="Path_5993" data-name="Path 5993" d="M1827.86,1371.81a9.561,9.561,0,1,0,9.56,9.56A9.571,9.571,0,0,0,1827.86,1371.81Zm0,14.09a4.529,4.529,0,1,1,4.528-4.529A4.535,4.535,0,0,1,1827.86,1385.9Z" transform="translate(-1818.3 -1371.81)" fill-rule="evenodd"/>
      </g>
    </g>
    <g id="Group_1949" data-name="Group 1949" transform="translate(109.2 50.319)">
      <g id="Group_1948" data-name="Group 1948">
        <path id="Path_5994" data-name="Path 5994" d="M2202.821,1371.81a9.561,9.561,0,1,0,9.561,9.56A9.571,9.571,0,0,0,2202.821,1371.81Zm0,14.09a4.529,4.529,0,1,1,4.529-4.529A4.534,4.534,0,0,1,2202.821,1385.9Z" transform="translate(-2193.26 -1371.81)" fill-rule="evenodd"/>
      </g>
    </g>
    <g id="Group_1951" data-name="Group 1951" transform="translate(62.235 50.319)">
      <g id="Group_1950" data-name="Group 1950">
        <path id="Path_5995" data-name="Path 5995" d="M1452.89,1371.81a9.561,9.561,0,1,0,9.561,9.56A9.571,9.571,0,0,0,1452.89,1371.81Zm0,14.09a4.529,4.529,0,1,1,4.529-4.529A4.534,4.534,0,0,1,1452.89,1385.9Z" transform="translate(-1443.33 -1371.81)" fill-rule="evenodd"/>
      </g>
    </g>
    <rect id="Rectangle_916" data-name="Rectangle 916" width="55.316" height="38.438" rx="6" transform="translate(0 50.845)"/>
    <path id="Path_5996" data-name="Path 5996" d="M594.524,1554.821a2.044,2.044,0,1,0-2.042,1.955A1.995,1.995,0,0,0,594.524,1554.821Zm-.261,14.273v-10.818H590.7v10.818Zm16.671-2.129-2.586-2.433a3.924,3.924,0,0,1-3.258,1.564c-2.564,0-4.367-1.912-4.367-4.714a4.428,4.428,0,0,1,4.432-4.715,3.837,3.837,0,0,1,3.107,1.412l2.52-2.52a7.843,7.843,0,0,0-5.757-2.26c-4.693,0-8.342,3.15-8.342,8.082a7.9,7.9,0,0,0,8.277,8.125,7.64,7.64,0,0,0,5.975-2.541Zm7.5-2.216a2.05,2.05,0,0,1-2.238,2.216c-.716,0-1.542-.282-1.542-1.109,0-1.281,1.76-1.477,3.324-1.477h.456Zm-4.736-3.064a4.091,4.091,0,0,1,2.672-1.108c1.108,0,1.955.5,1.955,1.564v.174c-3.15,0-6.952.522-6.952,3.65,0,2.542,2.216,3.389,3.932,3.389a3.589,3.589,0,0,0,3.063-1.412h.065v1.151H621.7v-5.453c0-3.932-1.347-5.714-4.975-5.714a7.093,7.093,0,0,0-4.823,1.825Zm14.411,7.408V1552.67h-3.607v16.424Z" transform="translate(-581.618 -1491.025)" fill="#fff"/>
  </g>
  <rect id="Rectangle_917" data-name="Rectangle 917" width="200" height="200" fill="none"/>
</svg>